…
Success!   
The key here was adding the extent - that narrowed the list more than most other factors, and can be useful for finding specific stations.  
The alternative to this process is to use NOAA's find-a-station web tool: https://www.ncdc.noaa.gov/cdo-web/datatools/findstation  
  
Now that we have stations for the area that we want to look at, let's pick Cape Grim BAPS and look at some data.  
  
```
ncdc(datasetid='GSOM', stationid = 'GHCND:ASN00091245', startdate = '1991-01-01', enddate = '1991-12-01')  
```

```
$data
# A tibble: 25 x 10
   date                datatype station           value fl_S  fl_a  fl_cc fl_d  fl_M  fl_Q 
   <chr>               <chr>    <chr>             <dbl> <chr> <chr> <chr> <chr> <chr> <chr>
 1 1991-01-01T00:00:00 CDSD     GHCND:ASN00091245   0.7 a     NA    NA    NA    NA    NA   
 2 1991-01-01T00:00:00 CLDD     GHCND:ASN00091245   0.7 a     5     NA    NA    NA    NA   
 3 1991-01-01T00:00:00 DP01     GHCND:ASN00091245   9   a     ""    NA    NA    NA    NA   
 4 1991-01-01T00:00:00 DP10     GHCND:ASN00091245   4   a     ""    NA    NA    NA    NA   
 5 1991-01-01T00:00:00 DP1X     GHCND:ASN00091245   1   a     ""    NA    NA    NA    NA   
 6 1991-01-01T00:00:00 DT00     GHCND:ASN00091245   0   a     5     NA    NA    NA    NA   
 7 1991-01-01T00:00:00 DT32     GHCND:ASN00091245   0   a     5     NA    NA    NA    NA   
 8 1991-01-01T00:00:00 DX32     GHCND:ASN00091245   0   a     5     NA    NA    NA    NA   
 9 1991-01-01T00:00:00 DX70     GHCND:ASN00091245   2   a     5     NA    NA    NA    NA   
10 1991-01-01T00:00:00 DX90     GHCND:ASN00091245   0   a     5     NA    NA    NA    NA   
# ... with 15 more rows
```
…
